…
### 1.3 Filter gapminder to all entries that have experienced a drop in life expectancy. Be sure to include a new variable that’s the increase in life expectancy in your tibble. Hint: you might find the lag() or diff() functions useful.

``` r
gapminder %>% 
  mutate(diff_lifeExp = c(NA, diff(lifeExp, lag = 1, differences = 1))) %>% 
  filter(diff_lifeExp < 0) %>% 
  select(country, year, lifeExp, diff_lifeExp)
```

    ## # A tibble: 221 x 4
    ##    country     year lifeExp diff_lifeExp
    ##    <fct>      <int>   <dbl>        <dbl>
    ##  1 Albania     1992    71.6       -0.419
    ##  2 Algeria     1952    43.1      -33.3  
    ##  3 Angola      1952    30.0      -42.3  
    ##  4 Angola      1987    39.9       -0.036
    ##  5 Australia   1952    69.1       -6.20 
    ##  6 Austria     1952    66.8      -14.4  
    ##  7 Bahrain     1952    50.9      -28.9  
    ##  8 Bangladesh  1952    37.5      -38.2  
    ##  9 Benin       1952    38.2      -41.2  
    ## 10 Benin       2002    54.4       -0.371
    ## # ... with 211 more rows

### 1.4 Filter gapminder so that it shows the max GDP per capita experienced by each country.

``` r
gapminder %>% 
  group_by(country) %>% 
  arrange(desc(gdpPercap)) %>% 
  filter(gdpPercap == first(gdpPercap)) %>% 
  arrange(country)
```

    ## # A tibble: 142 x 6
    ## # Groups:   country [142]
    ##    country     continent  year lifeExp       pop gdpPercap
    ##    <fct>       <fct>     <int>   <dbl>     <int>     <dbl>
    ##  1 Afghanistan Asia       1982    39.9  12881816      978.
    ##  2 Albania     Europe     2007    76.4   3600523     5937.
    ##  3 Algeria     Africa     2007    72.3  33333216     6223.
    ##  4 Angola      Africa     1967    36.0   5247469     5523.
    ##  5 Argentina   Americas   2007    75.3  40301927    12779.
    ##  6 Australia   Oceania    2007    81.2  20434176    34435.
    ##  7 Austria     Europe     2007    79.8   8199783    36126.
    ##  8 Bahrain     Asia       2007    75.6    708573    29796.
    ##  9 Bangladesh  Asia       2007    64.1 150448339     1391.
    ## 10 Belgium     Europe     2007    79.4  10392226    33693.
    ## # ... with 132 more rows
…
